Checking username and private key... *OK*<br>
Checking PHP version... *OK*<br>
Checking DOMDocument support... *OK*<br>
Checking transport method... <b>wget</b> is installed. Using <b>Wget</b> to handle requests<br>
<b>SQLite</b> is NOT installed. Unable to keep stats. This will not affect the OpenInviter modules since they will run without keeping any stats.<br>
Checking write permisions... <b>/tmp</b> is writable. Using <b>/tmp</b> to store cookie files and logs<br>
Checking for new versions of OpenInviter... Your OpenInviter software is up-to-date<br>
Checking Abv... *OK*<br>
Checking AOL... *OK*<br>
Checking Apropo... *OK*<br>
Checking Atlas... *OK*<br>
Checking Aussiemail... *OK*<br>
Checking Azet... *OK*<br>
Checking Bigstring... *OK*<br>
Checking Bordermail... *OK*<br>
Checking Canoe... *OK*<br>
Checking Care2... *OK*<br>
Checking Clevergo... *NOT OK* - This plugin might not work correctly on your system<br>
Checking Doramail... *OK*<br>
Checking Evite... *OK*<br>
Checking FastMail... *OK*<br>
Checking 5Fm... *OK*<br>
Checking Freemail... *OK*<br>
Checking Gawab... *OK*<br>
Checking GMail... *OK*<br>
Checking GMX.net... *OK*<br>
Checking Grafitti... *OK*<br>
Checking Live/Hotmail... *OK*<br>
Checking Hushmail... *OK*<br>
Checking Inbox.com... *OK*<br>
Checking India... *OK*<br>
Checking IndiaTimes... *OK*<br>
Checking Inet... *OK*<br>
Checking Interia... *OK*<br>
Checking KataMail... *OK*<br>
Checking Kids... *NOT OK* - This plugin might not work correctly on your system<br>
Checking Libero... *OK*<br>
Checking LinkedIn... *OK*<br>
Checking Lycos... *OK*<br>
Checking Mail2World... *OK*<br>
Checking Mail.com... *OK*<br>
Checking Mail.in... *OK*<br>
Checking Mail.ru... *OK*<br>
Checking Meta... *OK*<br>
Checking MSN... *OK*<br>
Checking Mynet.com... *OK*<br>
Checking Netaddress... *OK*<br>
Checking Nz11... *OK*<br>
Checking O2... *OK*<br>
Checking OperaMail... *OK*<br>
Checking Plaxo... *NOT OK* - This plugin might not work correctly on your system<br>
Checking Pochta... *OK*<br>
Checking Popstarmail... *NOT OK* - This plugin might not work correctly on your system<br>
Checking Rambler... *OK*<br>
Checking Rediff... *OK*<br>
Checking Sapo.pt... *OK*<br>
Checking Techemail... *OK*<br>
Checking Terra... *OK*<br>
Checking Uk2... *OK*<br>
Checking Virgilio... *OK*<br>
Checking Walla... *OK*<br>
Checking Web.de... *OK*<br>
Checking Wp.pt... *OK*<br>
Checking Xing... *OK*<br>
Checking Yahoo!... *OK*<br>
Checking Yandex... *OK*<br>
Checking YouTube... *OK*<br>
Checking Zapakmail... *OK*<br>
Checking Badoo... *OK*<br>
Checking Bebo... *OK*<br>
Checking Bookcrossing... *OK*<br>
Checking Brazencareerist... *OK*<br>
Checking Cyworld... *OK*<br>
Checking Eons... *OK*<br>
Checking Facebook... *OK*<br>
Checking Faces... *OK*<br>
Checking Famiva... *OK*<br>
Checking Fdcareer... *OK*<br>
Checking Flickr... *OK*<br>
Checking Flingr... *OK*<br>
Checking Flixster... *OK*<br>
Checking Friendfeed... *OK*<br>
Checking Friendster... *OK*<br>
Checking Hi5... *OK*<br>
Checking Hyves... *OK*<br>
Checking Kincafe... *OK*<br>
Checking Konnects... *OK*<br>
Checking Koolro... *OK*<br>
Checking Last.fm... *OK*<br>
Checking Livejournal... *OK*<br>
Checking Lovento... *OK*<br>
Checking Meinvz... *OK*<br>
Checking Mevio... *OK*<br>
Checking Motortopia... *OK*<br>
Checking Multiply... *OK*<br>
Checking Mycatspace... *OK*<br>
Checking Mydogspace... *NOT OK* - This plugin might not work correctly on your system<br>
Checking MySpace... *OK*<br>
Checking NetLog... *OK*<br>
Checking Ning... *OK*<br>
Checking Orkut... *OK*<br>
Checking Perfspot... *OK*<br>
Checking Plazes... *OK*<br>
Checking Plurk... *OK*<br>
Checking Skyrock... *OK*<br>
Checking Tagged... *OK*<br>
Checking Twitter... *OK*<br>
Checking Vimeo... *OK*<br>
Checking Vkontakte... *OK*<br>
Checking Xanga... *OK*<br>
Checking Xuqa... *OK*<br>
<br><b>WARNING:</b> Delete postinstall.php before running OpenInviter. Also please note that you cannot run postinstall.php again for 2 minutes.